get-started
…
# Extract the annotation part from the dataframe.
first_na_col <- which(is.na(data_excel[1,]))[1]
annotation <- data_excel |>
  dplyr::select((first_na_col + 1):ncol(data_excel)) |>
  dplyr::slice(-c(1:3))

print(data_excel)
#> # A tibble: 7,165 × 40
#>    `Sample ID` `1`   `2`   `3`   `4`   `5`   `6`   `7`   `8`   `9`   `10`  `11` 
#>    <chr>       <chr> <chr> <chr> <chr> <chr> <chr> <chr> <chr> <chr> <chr> <chr>
#>  1 Reactor     E09   E10   E12   E09   E10   E12   E09   E10   E12   E09   E10  
#>  2 Time Point  TP01  TP01  TP01  TP02  TP02  TP02  TP03  TP03  TP03  TP04  TP04 
#>  3 Phase of F… Expo… Expo… Expo… Expo… Expo… Expo… Expo… Expo… Expo… Expo… Expo…
#>  4 <NA>        15.2… 15.2… 15.3… 15.1… 15.2… 15.0… 15.2… 15.2… 15.2… 15.1… 15.2…
#>  5 <NA>        14.5… 14.6… 14.5… 14.6… 14.6… 14.6… 14.6… 14.6… 14.6… 14.5… 14.5…
#>  6 <NA>        15.9… 16.0… 16.0… 16.0… 15.8… 16.0… 15.9… 15.8… 16.0… 15.9… 15.9…
#>  7 <NA>        16.1… 16.0… 16.1… 16.1… 16.0… 16.1… 16.0… 16.0… 16.0… 15.9… 16.0…
#>  8 <NA>        15.0… 15.1… 15.2… 15.1… 15.1… 15.2… 15.2… 15.3… 15.2… 15.1… 15.1…
#>  9 <NA>        14.5… 14.7… 14.6… 14.5… 14.6… 14.6… 14.5… 14.6… 14.7… 14.5… 14.6…
#> 10 <NA>        15.0… 14.9… 15.1… 15.0… 15.0… 15.1… 14.9… 15.1… 14.9… 15.0… 14.9…
#> # ℹ 7,155 more rows
#> # ℹ 28 more variables: `12` <chr>, `13` <chr>, `14` <chr>, `15` <chr>,
#> #   `16` <chr>, `17` <chr>, `18` <chr>, `19` <chr>, `20` <chr>, `21` <chr>,
#> #   `22` <chr>, `23` <chr>, `24` <chr>, `25` <chr>, `26` <chr>, `27` <chr>,
#> #   `28` <chr>, `29` <chr>, `30` <chr>, `31` <chr>, `32` <chr>, `33` <chr>,
#> #   `34` <chr>, `35` <chr>, `36` <chr>, ...38 <lgl>, Gene_symbol <chr>,
#> #   Gene_name <chr>
print(annotation)
#> # A tibble: 7,162 × 2
#>    Gene_symbol  Gene_name                               
#>    <chr>        <chr>                                   
#>  1 LOC113838844 cone-rod homeobox protein-like          
#>  2 Bag4         BAG cochaperone 4                       
#>  3 Aoc3         amine oxidase copper containing 3       
#>  4 Heatr9       HEAT repeat containing 9                
#>  5 Wdr83os      WD repeat domain 83 opposite strand     
#>  6 Cubn         cubilin                                 
#>  7 Arhgef5      Rho guanine nucleotide exchange factor 5
#>  8 LOC103158723 40S ribosomal protein S9                
#>  9 Ncbp2as2     NCBP2 antisense 2 (head to head)        
#> 10 Dynlt1       dynein light chain Tctex-type 1         
#> # ℹ 7,152 more rows
print(meta)
#> # A tibble: 36 × 5
#>    Sample.ID            Reactor Time.Point Phase        Time
#>    <chr>                <chr>   <chr>      <chr>       <dbl>
#>  1 E09_TP01_Exponential E09     TP01       Exponential   -60
#>  2 E10_TP01_Exponential E10     TP01       Exponential   -60
#>  3 E12_TP01_Exponential E12     TP01       Exponential   -60
#>  4 E09_TP02_Exponential E09     TP02       Exponential    15
#>  5 E10_TP02_Exponential E10     TP02       Exponential    15
#>  6 E12_TP02_Exponential E12     TP02       Exponential    15
#>  7 E09_TP03_Exponential E09     TP03       Exponential    60
#>  8 E10_TP03_Exponential E10     TP03       Exponential    60
#>  9 E12_TP03_Exponential E12     TP03       Exponential    60
#> 10 E09_TP04_Exponential E09     TP04       Exponential    90
#> # ℹ 26 more rows
…
