SplineOmics-Tutorial
…
Load the packages

library(SplineOmics)
#> 

library(readxl)

Load the files

data <- read_excel(system.file("extdata", "data.xlsx", package = "SplineOmics"))
annotation <- read_excel(system.file("extdata", "annotation.xlsx", package = "SplineOmics"))
meta <- read_excel(system.file("extdata", "meta.xlsx", package = "SplineOmics"))

print(data)
#> # A tibble: 7,162 × 36
#>    E09_TP01_Exponential E10_TP01_Exponential E12_TP01_Exponential
#>                   <dbl>                <dbl>                <dbl>
#>  1                 15.3                 15.2                 15.3
#>  2                 14.5                 14.7                 14.6
#>  3                 16.0                 16.1                 16.1
#>  4                 16.2                 16.1                 16.2
#>  5                 15.1                 15.1                 15.2
#>  6                 14.6                 14.7                 14.6
#>  7                 15.0                 15.0                 15.1
#>  8                 14.8                 14.7                 14.7
#>  9                 20.5                 20.6                 20.7
#> 10                 16.4                 16.4                 16.4
#> # ℹ 7,152 more rows
#> # ℹ 33 more variables: E09_TP02_Exponential <dbl>, E10_TP02_Exponential <dbl>,
#> #   E12_TP02_Exponential <dbl>, E09_TP03_Exponential <dbl>,
#> #   E10_TP03_Exponential <dbl>, E12_TP03_Exponential <dbl>,
#> #   E09_TP04_Exponential <dbl>, E10_TP04_Exponential <dbl>,
#> #   E12_TP04_Exponential <dbl>, E09_TP05_Exponential <dbl>,
#> #   E10_TP05_Exponential <dbl>, E12_TP05_Exponential <dbl>, …

print(annotation)
#> # A tibble: 7,162 × 6
#>    `Potential contaminant` Protein.Group         Protein.Ids Protein.Names Genes
#>    <lgl>                   <chr>                 <chr>       <chr>         <chr>
#>  1 NA                      A0A8C2MV03;A0A8C2N2L3 A0A8C2MV03… A0A8C2MV03_C… Abhd4
#>  2 NA                      A0A8C2N4G8            A0A8C2N4G8  A0A8C2N4G8_C… Gbe1 
#>  3 NA                      G3GR83                G3GR83      G3GR83_CRIGR  Akr1…
#>  4 NA                      A0A098KX95            A0A098KX95  A0A098KX95_C… Agpa…
#>  5 NA                      G3HGQ9                G3HGQ9      G3HGQ9_CRIGR  Agpa…
#>  6 NA                      A0A8C2MM23            A0A8C2MM23  A0A8C2MM23_C… Agpa…
#>  7 NA                      G3H8X2                G3H8X2      G3H8X2_CRIGR  Agpa…
#>  8 NA                      A0A8C2MXW6            A0A8C2MXW6… A0A8C2MXW6_C… <NA> 
#>  9 NA                      A0A061HUZ2            A0A061HUZ2  A0A061HUZ2_C… H671…
#> 10 NA                      A0A8C2MC97            A0A8C2MC97  A0A8C2MC97_C… Plcb3
#> # ℹ 7,152 more rows
#> # ℹ 1 more variable: First.Protein.Description <chr>

print(meta)
#> # A tibble: 36 × 5
#>    Sample.ID            Reactor Time.Point Phase        Time
#>    <chr>                <chr>   <chr>      <chr>       <dbl>
#>  1 E09_TP01_Exponential E09     TP01       Exponential   -60
#>  2 E10_TP01_Exponential E10     TP01       Exponential   -60
#>  3 E12_TP01_Exponential E12     TP01       Exponential   -60
#>  4 E09_TP02_Exponential E09     TP02       Exponential    15
#>  5 E10_TP02_Exponential E10     TP02       Exponential    15
#>  6 E12_TP02_Exponential E12     TP02       Exponential    15
#>  7 E09_TP03_Exponential E09     TP03       Exponential    60
#>  8 E10_TP03_Exponential E10     TP03       Exponential    60
#>  9 E12_TP03_Exponential E12     TP03       Exponential    60
#> 10 E09_TP04_Exponential E09     TP04       Exponential    90
#> # ℹ 26 more rows
…
