Gene-centric multiomics clustering • SplineOmics
…
cluster_table <- res$cluster_table
centroid_info <- res$centroid_info

4. Inspect cluster_table

cluster_table contains one row per gene and one cluster
assignment column per block. For time-effect blocks (result category 1),
these columns are named cluster_<cond>.

cluster_table
#> # A tibble: 40 × 3
#>    gene   cluster_Constant cluster_Temp_shifted
#>    <chr>             <int>                <int>
#>  1 gene1                 5                    3
#>  2 gene10                5                    3
#>  3 gene11                2                    4
#>  4 gene12                2                    4
#>  5 gene13                3                    2
#>  6 gene14                3                    2
#>  7 gene15                5                    3
#>  8 gene16                2                    4
#>  9 gene17                2                    4
#> 10 gene18                5                    3
#> # ℹ 30 more rows
…
5. Inspect centroid_info

centroid_info summarizes, for each (block × modality ×
cluster), the centroid trajectory (list-column) and coherence metrics
(mean and sd of per-gene R²). If your implementation stores per-member
R² values in r2_member, you can use those to inspect
outliers within a cluster.

centroid_info
#> # A tibble: 30 × 11
#>    block    modality modality_type cluster n_genes_cluster n_genes_used coverage
#>    <chr>    <chr>    <chr>           <int>           <int>        <int>    <dbl>
#>  1 Constant rna      one_to_one          1               4            4        1
#>  2 Constant rna      one_to_one          2               7            7        1
#>  3 Constant rna      one_to_one          3              10           10        1
#>  4 Constant rna      one_to_one          4               8            8        1
#>  5 Constant rna      one_to_one          5              11           11        1
#>  6 Constant protein  one_to_one          1               4            4        1
#>  7 Constant protein  one_to_one          2               7            7        1
#>  8 Constant protein  one_to_one          3              10           10        1
#>  9 Constant protein  one_to_one          4               8            8        1
#> 10 Constant protein  one_to_one          5              11           11        1
#> # ℹ 20 more rows
#> # ℹ 4 more variables: mean_R2 <dbl>, sd_R2 <dbl>, r2_member <I<list>>,
#> #   centroid <I<list>>
…
