get-started • SplineOmics
…
Load the packages

library(SplineOmics)
#> 

library(readxl)

Load the files

data <- read_excel(system.file("extdata", "data.xlsx", package = "SplineOmics"))
annotation <- read_excel(system.file("extdata", "annotation.xlsx", package = "SplineOmics"))
meta <- read_excel(system.file("extdata", "meta.xlsx", package = "SplineOmics"))

print(data)
#> # A tibble: 7,162 × 36
#>    E09_TP01_Exponential E10_TP01_Exponential E12_TP01_Exponential
#>                   <dbl>                <dbl>                <dbl>
#>  1                 15.3                 15.2                 15.3
#>  2                 14.5                 14.7                 14.6
#>  3                 16.0                 16.1                 16.1
#>  4                 16.2                 16.1                 16.2
#>  5                 15.1                 15.1                 15.2
#>  6                 14.6                 14.7                 14.6
#>  7                 15.0                 15.0                 15.1
#>  8                 14.8                 14.7                 14.7
#>  9                 20.5                 20.6                 20.7
#> 10                 16.4                 16.4                 16.4
#> # ℹ 7,152 more rows
#> # ℹ 33 more variables: E09_TP02_Exponential <dbl>, E10_TP02_Exponential <dbl>,
#> #   E12_TP02_Exponential <dbl>, E09_TP03_Exponential <dbl>,
#> #   E10_TP03_Exponential <dbl>, E12_TP03_Exponential <dbl>,
#> #   E09_TP04_Exponential <dbl>, E10_TP04_Exponential <dbl>,
#> #   E12_TP04_Exponential <dbl>, E09_TP05_Exponential <dbl>,
#> #   E10_TP05_Exponential <dbl>, E12_TP05_Exponential <dbl>, …

print(annotation)
#> # A tibble: 7,162 × 6
#>    `Potential contaminant` Protein.Group         Protein.Ids Protein.Names Genes
#>    <lgl>                   <chr>                 <chr>       <chr>         <chr>
#>  1 NA                      A0A8C2MV03;A0A8C2N2L3 A0A8C2MV03… A0A8C2MV03_C… Abhd4
#>  2 NA                      A0A8C2N4G8            A0A8C2N4G8  A0A8C2N4G8_C… Gbe1 
#>  3 NA                      G3GR83                G3GR83      G3GR83_CRIGR  Akr1…
#>  4 NA                      A0A098KX95            A0A098KX95  A0A098KX95_C… Agpa…
#>  5 NA                      G3HGQ9                G3HGQ9      G3HGQ9_CRIGR  Agpa…
#>  6 NA                      A0A8C2MM23            A0A8C2MM23  A0A8C2MM23_C… Agpa…
#>  7 NA                      G3H8X2                G3H8X2      G3H8X2_CRIGR  Agpa…
#>  8 NA                      A0A8C2MXW6            A0A8C2MXW6… A0A8C2MXW6_C… NA   
#>  9 NA                      A0A061HUZ2            A0A061HUZ2  A0A061HUZ2_C… H671…
#> 10 NA                      A0A8C2MC97            A0A8C2MC97  A0A8C2MC97_C… Plcb3
#> # ℹ 7,152 more rows
#> # ℹ 1 more variable: First.Protein.Description <chr>

print(meta)
#> # A tibble: 36 × 5
#>    Sample.ID            Reactor Time.Point Phase        Time
#>    <chr>                <chr>   <chr>      <chr>       <dbl>
#>  1 E09_TP01_Exponential E09     TP01       Exponential   -60
#>  2 E10_TP01_Exponential E10     TP01       Exponential   -60
#>  3 E12_TP01_Exponential E12     TP01       Exponential   -60
#>  4 E09_TP02_Exponential E09     TP02       Exponential    15
#>  5 E10_TP02_Exponential E10     TP02       Exponential    15
#>  6 E12_TP02_Exponential E12     TP02       Exponential    15
#>  7 E09_TP03_Exponential E09     TP03       Exponential    60
#>  8 E10_TP03_Exponential E10     TP03       Exponential    60
#>  9 E12_TP03_Exponential E12     TP03       Exponential    60
#> 10 E09_TP04_Exponential E09     TP04       Exponential    90
#> # ℹ 26 more rows
…
# Run the limma spline analysis
result <- run_limma_splines(data,   # Chosen version of the data
                            meta,
                            design,
                            spline_params = spline_params,
                            condition)
#> Interaction terms identified in limma design formula. Selecting mode == integrated. This means that all levels are analysed using the full data.
#> The time values do not change consistently after the replicates.

top_tables1 <- result$time_effect 
print(top_tables1)
#> $Phase_Exponential
#> # A tibble: 7,162 × 9
#>         X1      X2 AveExpr     F   P.Value adj.P.Val feature_index feature_names
#>      <dbl>   <dbl>   <dbl> <dbl>     <dbl>     <dbl>         <int> <chr>        
#>  1  0.136   0.222     20.5  19.4   3.61e-6   0.00990          5683 5683         
#>  2 -0.177   0.242     20.9  17.1   1.03e-5   0.00990           110 110          
#>  3  0.0716  0.408     18.5  17.0   1.07e-5   0.00990          3253 3253         
#>  4  0.0457 -0.216     16.2  16.6   1.30e-5   0.00990          2861 2861         
#>  5 -0.0365  0.203     17.8  16.6   1.31e-5   0.00990          2514 2514         
#>  6  0.0707  0.248     21.6  16.6   1.33e-5   0.00990          5321 5321         
#>  7  0.250   0.154     17.3  16.4   1.46e-5   0.00990          6689 6689         
#>  8 -0.644  -0.0790    14.3  16.4   1.46e-5   0.00990          6127 6127         
#>  9 -0.376  -0.408     16.2  16.3   1.50e-5   0.00990           213 213          
#> 10  0.128  -0.116     15.4  16.3   1.50e-5   0.00990          4067 4067         
#> # ℹ 7,152 more rows
#> # ℹ 1 more variable: intercept <dbl>
#> 
#> $Phase_Stationary
#> # A tibble: 7,162 × 9
#>         X1      X2 AveExpr     F   P.Value adj.P.Val feature_index feature_names
#>      <dbl>   <dbl>   <dbl> <dbl>     <dbl>     <dbl>         <int> <chr>        
#>  1 -0.656  -0.375     14.3  26.8   1.85e-7   0.00133          6127 6127         
#>  2 -0.360  -0.221     15.5  16.2   1.62e-5   0.0345           1465 1465         
#>  3 -0.313  -0.129     17.6  16.0   1.71e-5   0.0345           2722 2722         
#>  4 -0.363  -0.107     19.2  15.8   1.92e-5   0.0345           6549 6549         
#>  5 -1.13   -0.769     11.7  15.3   2.41e-5   0.0345           1231 1231         
#>  6  0.267   0.0878    14.5  12.8   8.95e-5   0.107            1092 1092         
#>  7  0.0815 -0.254     13.9  12.3   1.21e-4   0.110            5503 5503         
#>  8 -0.432  -0.189     15.1  12.3   1.22e-4   0.110            1399 1399         
#>  9 -0.815  -0.503     16.8  11.9   1.51e-4   0.120            3187 3187         
#> 10  0.824   0.461     11.3  11.3   2.07e-4   0.148            4277 4277         
#> # ℹ 7,152 more rows
#> # ℹ 1 more variable: intercept <dbl>

top_tables2 <- result$avrg_diff_conditions 
print(top_tables2)
#> $avrg_diff_Exponential_vs_Stationary
#> # A tibble: 7,162 × 9
#>    logFC AveExpr     t  P.Value adj.P.Val     B feature_index feature_names
#>    <dbl>   <dbl> <dbl>    <dbl>     <dbl> <dbl>         <int> <chr>        
#>  1 -2.85    17.1 -55.5 2.71e-32  1.94e-28  63.2          6548 6548         
#>  2 -1.26    16.6 -45.8 8.78e-30  3.14e-26  57.8          1156 1156         
#>  3 -1.51    15.9 -41.5 1.71e-28  4.09e-25  55.0          2623 2623         
#>  4 -2.63    15.0 -40.7 3.04e-28  5.44e-25  54.4           822 822          
#>  5 -2.52    15.3 -39.1 1.01e-27  1.44e-24  53.3          4129 4129         
#>  6 -1.81    16.1 -38.5 1.63e-27  1.95e-24  52.8          1123 1123         
#>  7 -2.72    14.3 -37.0 5.42e-27  5.55e-24  51.7          1098 1098         
#>  8 -2.10    14.2 -36.6 7.45e-27  6.67e-24  51.3          3158 3158         
#>  9 -2.34    16.1 -35.4 2.02e-26  1.61e-23  50.4          3155 3155         
#> 10 -2.71    14.6 -35.3 2.32e-26  1.66e-23  50.2          2955 2955         
#> # ℹ 7,152 more rows
#> # ℹ 1 more variable: intercept <dbl>

top_tables3 <- result$interaction_condition_time 
print(top_tables3) 
#> $time_interaction_Exponential_vs_Stationary
#> # A tibble: 7,162 × 9
#>    PhaseStationary.X1 PhaseStationary.X2 AveExpr     F   P.Value adj.P.Val
#>                 <dbl>              <dbl>   <dbl> <dbl>     <dbl>     <dbl>
#>  1             -0.519             0.147     14.1 14.1  0.0000458     0.328
#>  2              1.51             -0.0622    12.4 12.3  0.000117      0.394
#>  3              2.71              0.698     12.9 11.7  0.000171      0.394
#>  4             -0.223             0.210     15.3 10.8  0.000280      0.394
#>  5              0.967             0.0145    13.5 10.7  0.000298      0.394
#>  6              0.510             0.115     16.5 10.2  0.000401      0.394
#>  7              1.13             -0.240     12.3  9.72 0.000538      0.394
#>  8             -0.121            -0.179     15.9  9.72 0.000539      0.394
#>  9             -0.311            -0.144     17.3  9.71 0.000542      0.394
#> 10              0.602             0.302     12.8  9.69 0.000550      0.394
#> # ℹ 7,152 more rows
#> # ℹ 3 more variables: feature_index <int>, feature_names <chr>, intercept <dbl>
…
