PVC_analysis • SplineOmics
…
#> 24  E12_TP08_Stationary     E12       TP08  Stationary   15
#> 25  E09_TP09_Stationary     E09       TP09  Stationary   60
#> 26  E10_TP09_Stationary     E10       TP09  Stationary   60
#> 27  E12_TP09_Stationary     E12       TP09  Stationary   60
#> 28  E09_TP10_Stationary     E09       TP10  Stationary   90
#> 29  E10_TP10_Stationary     E10       TP10  Stationary   90
#> 30  E12_TP10_Stationary     E12       TP10  Stationary   90
#> 31  E09_TP11_Stationary     E09       TP11  Stationary  120
#> 32  E10_TP11_Stationary     E10       TP11  Stationary  120
#> 33  E12_TP11_Stationary     E12       TP11  Stationary  120
#> 34  E09_TP12_Stationary     E09       TP12  Stationary  240
#> 35  E10_TP12_Stationary     E10       TP12  Stationary  240
#> 36  E12_TP12_Stationary     E12       TP12  Stationary  240
print(annotation)
#> # A tibble: 4,162 × 2
#>    Gene_symbol  Gene_name                                              
#>    <chr>        <chr>                                                  
#>  1 LOC113838844 cone-rod homeobox protein-like                         
#>  2 Wdr83os      WD repeat domain 83 opposite strand                    
#>  3 Cubn         cubilin                                                
#>  4 Dynlt1       dynein light chain Tctex-type 1                        
#>  5 Ostc         oligosaccharyltransferase complex non-catalytic subunit
#>  6 Unc5cl       unc-5 family C-terminal like                           
#>  7 Cfl1         cofilin 1                                              
#>  8 LOC100752202 HEN methyltransferase 1                                
#>  9 LOC100755162 acyl-coenzyme A synthetase ACSM5, mitochondrial        
#> 10 LOC100768921 40S ribosomal protein S21                              
#> # ℹ 4,152 more rows
…
